.....................
----------------------------------------------------------------------
Ran 21 tests in 0.043s

OK
Name             Stmts   Miss Branch BrPart  Cover   Missing
------------------------------------------------------------
Collatz.py          37      0     14      0   100%
TestCollatz.py      84      0      0      0   100%
------------------------------------------------------------
TOTAL              121      0     14      0   100%
