1 10 20
100 200 125
201 210 89
900 1000 174
123 456 144
123 1234 182
12345 98765 351
100000 200000 383
1000 2000 182
1000 100000 351
5650 56500 340
32 45 110
320 45676 324
765 765 47
999 999 50
654 987 179
121 232 128
121000 434000 449
1234 12345 268
1567 800000 509
6001 7000 262
500001 600000 470
780 781 122
1 2 2
500 500000 449
99 43244 324
1234 5432 238
12344 64467 340
2 4 8
598 9988 262
12 9876 262
123 99887 351
900000 999999 507
111111 999999 525
111111 222222 386
23232 45454 324
98769 123423 354
6445 43254 324
545 666 145
777 9999 262
11111 44444 324
34343 78788 351
764 765 47
123434 126444 318
9876 9899 242
7888 99887 351
123 5566 238
1453 78888 351
8909 12345 268
12345 123456 354
11880 11999 250
12313 54535 340
54535 565456 470
4343 65656 340
1 45545 324
4 64656 340
3 5656 238
21 45636 324
34 12234 268
1 2354 183
15 34562 311
21 564 144
1423 4235 238
1423 4356 238
2 6543 262
3 6565 262
1 90909 351
5345 5454 192
4 888 179
1234 12340 268
9876 98765 351
1234 12344 268
5656 7878 262
8 54687 340
5432 8899 262
1234 123456 354
1 123456 354
88778 88999 240
34 53454 340
4343 8988 262
4 434343 449
3 43439 324
23 888 179
434 8888 262
2345 8888 262
2342 55543 340
12 43535 324
1234 53421 340
12 2345 183
2 545 144
12 345 144
142 4536 238
89 1324 182
9 4324 238
787 1234 182
12 8989 262
989 534543 470
12 123 119
1234 12345 268
5342 54353 340
5325 543333 470
444 3333 217
453 12345 268
22222 22223 57
34545 55666 340
5555 43434 324
22 55 113
2 4 8
235 8998 262
989 43242 324
5454 543453 470
123 5555 238
98 890 179
231 453 144
423 56466 340
